Biomarker Data Set by Vermeulen et al. (2009) • vermeulen
…
# install.packages("remotes")
remotes::install_github("ramiromagno/vermeulen")

Usage

Because of CRAN size limits the data is not provided at installation time. The data can be retrieved from this GitHub repository after installation with the function get_biomarker_dataset().

library(vermeulen)
library(tibble)
library(dplyr)

# Takes a few seconds (downloading from GitHub...)
biomarker <- as_tibble(get_biomarker_dataset())
biomarker
#> # A tibble: 1,226,880 × 11
#>    plate well  dye   target target_type sample sample_type copies dilution cycle
#>    <fct> <fct> <fct> <fct>  <fct>       <chr>  <fct>        <int>    <dbl> <int>
#>  1 AHCY  A1    SYBR  AHCY   toi         1495   unk             NA       NA     1
#>  2 AHCY  A1    SYBR  AHCY   toi         1495   unk             NA       NA     2
#>  3 AHCY  A1    SYBR  AHCY   toi         1495   unk             NA       NA     3
#>  4 AHCY  A1    SYBR  AHCY   toi         1495   unk             NA       NA     4
#>  5 AHCY  A1    SYBR  AHCY   toi         1495   unk             NA       NA     5
#>  6 AHCY  A1    SYBR  AHCY   toi         1495   unk             NA       NA     6
#>  7 AHCY  A1    SYBR  AHCY   toi         1495   unk             NA       NA     7
#>  8 AHCY  A1    SYBR  AHCY   toi         1495   unk             NA       NA     8
#>  9 AHCY  A1    SYBR  AHCY   toi         1495   unk             NA       NA     9
#> 10 AHCY  A1    SYBR  AHCY   toi         1495   unk             NA       NA    10
#> # ℹ 1,226,870 more rows
#> # ℹ 1 more variable: fluor <dbl>
…
