…
``` r
# install.packages("remotes")
remotes::install_github("ramiromagno/vermeulen")
```

## Usage

### Amplification curves

``` r
library(vermeulen)

amplification_curves
#> # A tibble: 1,226,880 × 5
#>    plate  well  dye   cycle fluor
#>    <fct>  <fct> <fct> <int> <dbl>
#>  1 CAMTA2 A1    SYBR      1  1.18
#>  2 CAMTA2 A1    SYBR      2  1.46
#>  3 CAMTA2 A1    SYBR      3  1.47
#>  4 CAMTA2 A1    SYBR      4  1.49
#>  5 CAMTA2 A1    SYBR      5  1.49
#>  6 CAMTA2 A1    SYBR      6  1.49
#>  7 CAMTA2 A1    SYBR      7  1.50
#>  8 CAMTA2 A1    SYBR      8  1.49
#>  9 CAMTA2 A1    SYBR      9  1.48
#> 10 CAMTA2 A1    SYBR     10  1.48
#> # … with 1,226,870 more rows
#> # ℹ Use `print(n = ...)` to see more rows
```

### Reactions

``` r
reactions
#> # A tibble: 24,576 × 5
#>    plate  well  dye   sample target
#>    <fct>  <fct> <fct> <chr>  <fct> 
#>  1 CAMTA2 A1    SYBR  1495   CAMTA2
#>  2 CAMTA2 A2    SYBR  1832   CAMTA2
#>  3 CAMTA2 A3    SYBR  1496   CAMTA2
#>  4 CAMTA2 A4    SYBR  1834   CAMTA2
#>  5 CAMTA2 A5    SYBR  1497   CAMTA2
#>  6 CAMTA2 A6    SYBR  1835   CAMTA2
#>  7 CAMTA2 A7    SYBR  1498   CAMTA2
#>  8 CAMTA2 A8    SYBR  1836   CAMTA2
#>  9 CAMTA2 A9    SYBR  1499   CAMTA2
#> 10 CAMTA2 A10   SYBR  1837   CAMTA2
#> # … with 24,566 more rows
#> # ℹ Use `print(n = ...)` to see more rows
```

### Targets

``` r
targets
#> # A tibble: 64 × 2
#>    target  target_type
#>    <fct>   <fct>      
#>  1 CAMTA2  toi        
#>  2 CAMTA1  toi        
#>  3 BIRC5   toi        
#>  4 ARHGEF7 toi        
#>  5 ALUsq   toi        
#>  6 AKR1C1  toi        
#>  7 AHCY    toi        
#>  8 ECEL1   toi        
#>  9 DPYSL3  toi        
#> 10 DDC     toi        
#> # … with 54 more rows
#> # ℹ Use `print(n = ...)` to see more rows
```

### Samples

``` r
targets
#> # A tibble: 64 × 2
#>    target  target_type
#>    <fct>   <fct>      
#>  1 CAMTA2  toi        
#>  2 CAMTA1  toi        
#>  3 BIRC5   toi        
#>  4 ARHGEF7 toi        
#>  5 ALUsq   toi        
#>  6 AKR1C1  toi        
#>  7 AHCY    toi        
#>  8 ECEL1   toi        
#>  9 DPYSL3  toi        
#> 10 DDC     toi        
#> # … with 54 more rows
#> # ℹ Use `print(n = ...)` to see more rows
```
…
